graph {
 label="9 colors used for coloring the 25 nodes"
 node [ style = filled ]

 0 [ fillcolor = "0 1 1" ]
 1 [ fillcolor = "0.111111 1 1" ]
 2 [ fillcolor = "0.222222 1 1" ]
 3 [ fillcolor = "0.333333 1 1" ]
 4 [ fillcolor = "0.444444 1 1" ]
 5 [ fillcolor = "0.555556 1 1" ]
 6 [ fillcolor = "0.666667 1 1" ]
 7 [ fillcolor = "0 1 1" ]
 8 [ fillcolor = "0.666667 1 1" ]
 9 [ fillcolor = "0.555556 1 1" ]
 10 [ fillcolor = "0.333333 1 1" ]
 11 [ fillcolor = "0.777778 1 1" ]
 12 [ fillcolor = "0.333333 1 1" ]
 13 [ fillcolor = "0.777778 1 1" ]
 14 [ fillcolor = "0.222222 1 1" ]
 15 [ fillcolor = "0.111111 1 1" ]
 16 [ fillcolor = "0.555556 1 1" ]
 17 [ fillcolor = "0.888889 1 1" ]
 18 [ fillcolor = "0.888889 1 1" ]
 19 [ fillcolor = "0.666667 1 1" ]
 20 [ fillcolor = "0.222222 1 1" ]
 21 [ fillcolor = "0.777778 1 1" ]
 22 [ fillcolor = "0.444444 1 1" ]
 23 [ fillcolor = "0.888889 1 1" ]
 24 [ fillcolor = "0.111111 1 1" ]

 0 -- 1
 0 -- 2
 0 -- 3
 0 -- 4
 0 -- 5
 0 -- 6
 0 -- 8
 0 -- 9
 0 -- 10
 0 -- 11
 0 -- 12
 0 -- 13
 0 -- 15
 0 -- 16
 0 -- 17
 0 -- 18
 0 -- 19
 0 -- 20
 0 -- 21
 0 -- 22
 0 -- 23
 0 -- 24
 1 -- 2
 1 -- 3
 1 -- 4
 1 -- 5
 1 -- 6
 1 -- 7
 1 -- 8
 1 -- 9
 1 -- 10
 1 -- 11
 1 -- 12
 1 -- 13
 1 -- 14
 1 -- 16
 1 -- 17
 1 -- 18
 1 -- 19
 1 -- 20
 1 -- 21
 1 -- 23
 2 -- 3
 2 -- 4
 2 -- 5
 2 -- 6
 2 -- 8
 2 -- 9
 2 -- 10
 2 -- 12
 2 -- 13
 2 -- 15
 2 -- 16
 2 -- 18
 2 -- 19
 2 -- 21
 2 -- 22
 2 -- 23
 2 -- 24
 3 -- 4
 3 -- 6
 3 -- 7
 3 -- 8
 3 -- 9
 3 -- 11
 3 -- 13
 3 -- 14
 3 -- 15
 3 -- 16
 3 -- 18
 3 -- 19
 3 -- 20
 3 -- 21
 3 -- 22
 3 -- 23
 3 -- 24
 4 -- 7
 4 -- 8
 4 -- 9
 4 -- 10
 4 -- 11
 4 -- 12
 4 -- 13
 4 -- 14
 4 -- 15
 4 -- 16
 4 -- 17
 4 -- 21
 4 -- 23
 4 -- 24
 5 -- 6
 5 -- 7
 5 -- 10
 5 -- 12
 5 -- 13
 5 -- 14
 5 -- 18
 5 -- 19
 5 -- 20
 5 -- 21
 5 -- 23
 6 -- 9
 6 -- 10
 6 -- 12
 6 -- 13
 6 -- 15
 6 -- 16
 6 -- 17
 6 -- 18
 6 -- 20
 6 -- 21
 6 -- 22
 6 -- 23
 6 -- 24
 7 -- 9
 7 -- 10
 7 -- 14
 7 -- 15
 7 -- 17
 7 -- 18
 7 -- 19
 7 -- 20
 7 -- 21
 7 -- 22
 7 -- 24
 8 -- 10
 8 -- 11
 8 -- 12
 8 -- 14
 8 -- 15
 8 -- 16
 8 -- 17
 8 -- 20
 8 -- 21
 8 -- 22
 8 -- 23
 8 -- 24
 9 -- 11
 9 -- 12
 9 -- 13
 9 -- 14
 9 -- 15
 9 -- 17
 9 -- 18
 9 -- 19
 9 -- 20
 9 -- 21
 9 -- 22
 9 -- 23
 9 -- 24
 10 -- 11
 10 -- 15
 10 -- 16
 10 -- 17
 10 -- 19
 10 -- 20
 10 -- 22
 10 -- 23
 11 -- 14
 11 -- 16
 11 -- 17
 11 -- 19
 11 -- 20
 11 -- 22
 11 -- 23
 11 -- 24
 12 -- 13
 12 -- 14
 12 -- 15
 12 -- 16
 12 -- 17
 12 -- 18
 12 -- 19
 12 -- 20
 12 -- 24
 13 -- 14
 13 -- 15
 13 -- 16
 13 -- 19
 13 -- 20
 13 -- 22
 13 -- 23
 13 -- 24
 14 -- 15
 14 -- 16
 14 -- 17
 14 -- 18
 14 -- 19
 14 -- 21
 14 -- 23
 14 -- 24
 15 -- 16
 15 -- 17
 15 -- 18
 15 -- 20
 15 -- 21
 15 -- 22
 15 -- 23
 16 -- 17
 16 -- 18
 16 -- 19
 16 -- 20
 16 -- 21
 16 -- 22
 16 -- 24
 17 -- 20
 17 -- 21
 17 -- 22
 17 -- 24
 18 -- 19
 18 -- 20
 18 -- 21
 18 -- 22
 18 -- 24
 19 -- 21
 19 -- 22
 19 -- 23
 20 -- 21
 20 -- 22
 20 -- 23
 21 -- 22
 21 -- 23
 21 -- 24
 22 -- 23
 22 -- 24
 23 -- 24

}
