graph {
 label="7 colors used for coloring the 10 nodes"
 node [ style = filled ]

 0 [ fillcolor = "0 1 1" ]
 1 [ fillcolor = "0.142857 1 1" ]
 2 [ fillcolor = "0.285714 1 1" ]
 3 [ fillcolor = "0.428571 1 1" ]
 4 [ fillcolor = "0.571429 1 1" ]
 5 [ fillcolor = "0.571429 1 1" ]
 6 [ fillcolor = "0.571429 1 1" ]
 7 [ fillcolor = "0.714286 1 1" ]
 8 [ fillcolor = "0.857143 1 1" ]
 9 [ fillcolor = "0.714286 1 1" ]

 0 -- 1
 0 -- 2
 0 -- 3
 0 -- 4
 0 -- 5
 0 -- 7
 0 -- 8
 1 -- 2
 1 -- 3
 1 -- 4
 1 -- 5
 1 -- 7
 1 -- 8
 2 -- 3
 2 -- 4
 2 -- 5
 2 -- 6
 2 -- 7
 2 -- 8
 2 -- 9
 3 -- 4
 3 -- 5
 3 -- 6
 3 -- 7
 3 -- 8
 3 -- 9
 4 -- 7
 4 -- 8
 4 -- 9
 5 -- 7
 5 -- 8
 5 -- 9
 6 -- 7
 6 -- 8
 6 -- 9
 7 -- 8
 8 -- 9

}
