graph {
 label="8 colors used for coloring the 20 nodes"
 node [ style = filled ]

 0 [ fillcolor = "0 1 1" ]
 1 [ fillcolor = "0.125 1 1" ]
 2 [ fillcolor = "0.25 1 1" ]
 3 [ fillcolor = "0.125 1 1" ]
 4 [ fillcolor = "0.375 1 1" ]
 5 [ fillcolor = "0.5 1 1" ]
 6 [ fillcolor = "0.625 1 1" ]
 7 [ fillcolor = "0.5 1 1" ]
 8 [ fillcolor = "0.5 1 1" ]
 9 [ fillcolor = "0.375 1 1" ]
 10 [ fillcolor = "0.625 1 1" ]
 11 [ fillcolor = "0.25 1 1" ]
 12 [ fillcolor = "0.125 1 1" ]
 13 [ fillcolor = "0.75 1 1" ]
 14 [ fillcolor = "0.625 1 1" ]
 15 [ fillcolor = "0.75 1 1" ]
 16 [ fillcolor = "0.875 1 1" ]
 17 [ fillcolor = "0 1 1" ]
 18 [ fillcolor = "0.875 1 1" ]
 19 [ fillcolor = "0.875 1 1" ]

 0 -- 1
 0 -- 2
 0 -- 3
 0 -- 4
 0 -- 5
 0 -- 6
 0 -- 7
 0 -- 8
 0 -- 11
 0 -- 12
 0 -- 13
 0 -- 14
 0 -- 16
 0 -- 18
 0 -- 19
 1 -- 2
 1 -- 4
 1 -- 5
 1 -- 6
 1 -- 7
 1 -- 8
 1 -- 9
 1 -- 10
 1 -- 13
 1 -- 14
 1 -- 15
 1 -- 16
 1 -- 17
 1 -- 18
 2 -- 3
 2 -- 4
 2 -- 5
 2 -- 7
 2 -- 8
 2 -- 10
 2 -- 12
 2 -- 13
 2 -- 14
 2 -- 17
 2 -- 19
 3 -- 4
 3 -- 5
 3 -- 7
 3 -- 8
 3 -- 10
 3 -- 11
 3 -- 13
 3 -- 14
 3 -- 15
 3 -- 18
 3 -- 19
 4 -- 5
 4 -- 6
 4 -- 7
 4 -- 10
 4 -- 11
 4 -- 12
 4 -- 13
 4 -- 14
 4 -- 16
 4 -- 18
 4 -- 19
 5 -- 6
 5 -- 9
 5 -- 10
 5 -- 11
 5 -- 13
 5 -- 16
 5 -- 17
 5 -- 18
 5 -- 19
 6 -- 8
 6 -- 9
 6 -- 11
 6 -- 12
 6 -- 13
 6 -- 15
 6 -- 16
 6 -- 18
 7 -- 11
 7 -- 12
 7 -- 13
 7 -- 14
 7 -- 16
 7 -- 18
 7 -- 19
 8 -- 9
 8 -- 10
 8 -- 12
 8 -- 13
 8 -- 14
 8 -- 15
 8 -- 16
 8 -- 18
 8 -- 19
 9 -- 11
 9 -- 12
 9 -- 13
 9 -- 14
 9 -- 15
 9 -- 16
 9 -- 17
 9 -- 19
 10 -- 12
 10 -- 13
 10 -- 15
 10 -- 16
 10 -- 17
 10 -- 18
 10 -- 19
 11 -- 13
 11 -- 14
 11 -- 16
 11 -- 18
 11 -- 19
 12 -- 13
 12 -- 14
 12 -- 15
 12 -- 16
 12 -- 17
 12 -- 19
 13 -- 14
 13 -- 16
 13 -- 17
 13 -- 18
 13 -- 19
 14 -- 17
 14 -- 18
 14 -- 19
 15 -- 19
 17 -- 18
 17 -- 19

}
