graph {
 label="7 colors used for coloring the 16 nodes"
 node [ style = filled ]

 0 [ fillcolor = "0 1 1" ]
 1 [ fillcolor = "0.142857 1 1" ]
 2 [ fillcolor = "0.285714 1 1" ]
 3 [ fillcolor = "0.428571 1 1" ]
 4 [ fillcolor = "0.571429 1 1" ]
 5 [ fillcolor = "0.571429 1 1" ]
 6 [ fillcolor = "0.142857 1 1" ]
 7 [ fillcolor = "0.428571 1 1" ]
 8 [ fillcolor = "0.714286 1 1" ]
 9 [ fillcolor = "0.285714 1 1" ]
 10 [ fillcolor = "0.428571 1 1" ]
 11 [ fillcolor = "0.714286 1 1" ]
 12 [ fillcolor = "0.857143 1 1" ]
 13 [ fillcolor = "0.714286 1 1" ]
 14 [ fillcolor = "0 1 1" ]
 15 [ fillcolor = "0.857143 1 1" ]

 0 -- 1
 0 -- 2
 0 -- 4
 0 -- 5
 0 -- 6
 0 -- 8
 0 -- 9
 0 -- 11
 1 -- 2
 1 -- 3
 1 -- 4
 1 -- 5
 1 -- 7
 1 -- 9
 1 -- 10
 1 -- 11
 1 -- 12
 1 -- 14
 1 -- 15
 2 -- 3
 2 -- 4
 2 -- 5
 2 -- 7
 2 -- 8
 2 -- 10
 2 -- 11
 2 -- 12
 2 -- 13
 2 -- 14
 2 -- 15
 3 -- 4
 3 -- 6
 3 -- 8
 3 -- 9
 3 -- 11
 3 -- 12
 3 -- 13
 3 -- 14
 3 -- 15
 4 -- 6
 4 -- 7
 4 -- 9
 4 -- 11
 4 -- 12
 4 -- 13
 4 -- 14
 4 -- 15
 5 -- 6
 5 -- 7
 5 -- 9
 5 -- 10
 5 -- 12
 5 -- 13
 5 -- 14
 5 -- 15
 6 -- 9
 6 -- 10
 6 -- 11
 6 -- 15
 7 -- 11
 7 -- 12
 7 -- 14
 8 -- 9
 8 -- 14
 8 -- 15
 9 -- 10
 9 -- 11
 9 -- 12
 9 -- 13
 9 -- 14
 9 -- 15
 10 -- 13
 10 -- 15
 11 -- 12
 11 -- 14
 11 -- 15
 12 -- 13
 12 -- 14
 13 -- 15
 14 -- 15

}
