graph {
 label="6 colors used for coloring the 16 nodes"
 node [ style = filled ]

 0 [ fillcolor = "0 1 1" ]
 1 [ fillcolor = "0.166667 1 1" ]
 2 [ fillcolor = "0.333333 1 1" ]
 3 [ fillcolor = "0.5 1 1" ]
 4 [ fillcolor = "0.5 1 1" ]
 5 [ fillcolor = "0.166667 1 1" ]
 6 [ fillcolor = "0.666667 1 1" ]
 7 [ fillcolor = "0.333333 1 1" ]
 8 [ fillcolor = "0.833333 1 1" ]
 9 [ fillcolor = "0.166667 1 1" ]
 10 [ fillcolor = "0 1 1" ]
 11 [ fillcolor = "0.166667 1 1" ]
 12 [ fillcolor = "0.333333 1 1" ]
 13 [ fillcolor = "0.666667 1 1" ]
 14 [ fillcolor = "0.5 1 1" ]
 15 [ fillcolor = "0.833333 1 1" ]

 0 -- 1
 0 -- 3
 0 -- 4
 0 -- 5
 0 -- 7
 0 -- 8
 0 -- 11
 0 -- 12
 0 -- 13
 0 -- 14
 0 -- 15
 1 -- 2
 1 -- 3
 1 -- 4
 1 -- 7
 1 -- 8
 1 -- 12
 1 -- 13
 1 -- 14
 1 -- 15
 2 -- 3
 2 -- 4
 2 -- 6
 2 -- 8
 2 -- 10
 2 -- 11
 2 -- 13
 2 -- 14
 2 -- 15
 3 -- 5
 3 -- 6
 3 -- 8
 3 -- 12
 3 -- 13
 3 -- 15
 4 -- 5
 4 -- 8
 4 -- 9
 4 -- 10
 4 -- 11
 4 -- 12
 4 -- 13
 4 -- 15
 5 -- 6
 5 -- 7
 5 -- 8
 5 -- 10
 5 -- 12
 5 -- 13
 5 -- 14
 5 -- 15
 6 -- 7
 6 -- 8
 6 -- 9
 6 -- 11
 6 -- 12
 6 -- 14
 6 -- 15
 7 -- 8
 7 -- 9
 7 -- 11
 7 -- 13
 7 -- 14
 8 -- 9
 8 -- 10
 8 -- 11
 8 -- 12
 8 -- 13
 8 -- 14
 9 -- 10
 9 -- 12
 9 -- 13
 9 -- 14
 9 -- 15
 10 -- 11
 10 -- 12
 10 -- 13
 10 -- 15
 11 -- 13
 11 -- 14
 12 -- 14
 12 -- 15
 13 -- 15
 14 -- 15

}
