graph {
 label="7 colors used for coloring the 16 nodes"
 node [ style = filled ]

 0 [ fillcolor = "0 1 1" ]
 1 [ fillcolor = "0.142857 1 1" ]
 2 [ fillcolor = "0.285714 1 1" ]
 3 [ fillcolor = "0.428571 1 1" ]
 4 [ fillcolor = "0.571429 1 1" ]
 5 [ fillcolor = "0.714286 1 1" ]
 6 [ fillcolor = "0.571429 1 1" ]
 7 [ fillcolor = "0.857143 1 1" ]
 8 [ fillcolor = "0.428571 1 1" ]
 9 [ fillcolor = "0.857143 1 1" ]
 10 [ fillcolor = "0.285714 1 1" ]
 11 [ fillcolor = "0.571429 1 1" ]
 12 [ fillcolor = "0.285714 1 1" ]
 13 [ fillcolor = "0 1 1" ]
 14 [ fillcolor = "0.142857 1 1" ]
 15 [ fillcolor = "0.714286 1 1" ]

 0 -- 1
 0 -- 2
 0 -- 4
 0 -- 5
 0 -- 7
 0 -- 8
 0 -- 9
 0 -- 10
 0 -- 11
 0 -- 12
 0 -- 14
 0 -- 15
 1 -- 2
 1 -- 3
 1 -- 4
 1 -- 5
 1 -- 6
 1 -- 7
 1 -- 9
 1 -- 10
 1 -- 11
 1 -- 12
 1 -- 15
 2 -- 3
 2 -- 4
 2 -- 5
 2 -- 6
 2 -- 7
 2 -- 8
 2 -- 9
 2 -- 13
 2 -- 15
 3 -- 5
 3 -- 7
 3 -- 9
 3 -- 10
 3 -- 11
 3 -- 12
 3 -- 13
 3 -- 15
 4 -- 5
 4 -- 7
 4 -- 8
 4 -- 9
 4 -- 10
 4 -- 12
 4 -- 13
 4 -- 14
 4 -- 15
 5 -- 6
 5 -- 7
 5 -- 8
 5 -- 9
 5 -- 10
 5 -- 11
 5 -- 12
 6 -- 7
 6 -- 8
 6 -- 10
 6 -- 12
 6 -- 13
 6 -- 14
 6 -- 15
 7 -- 8
 7 -- 10
 7 -- 11
 7 -- 12
 7 -- 13
 7 -- 14
 8 -- 9
 8 -- 10
 8 -- 12
 8 -- 13
 8 -- 14
 8 -- 15
 9 -- 10
 9 -- 11
 9 -- 12
 9 -- 13
 9 -- 14
 9 -- 15
 10 -- 11
 10 -- 14
 10 -- 15
 11 -- 13
 11 -- 14
 11 -- 15
 12 -- 13
 12 -- 14
 13 -- 14
 13 -- 15
 14 -- 15

}
