graph {
 label="4 colors used for coloring the 7 nodes"
 node [ style = filled ]

 0 [ fillcolor = "0 1 1" ]
 1 [ fillcolor = "0.25 1 1" ]
 2 [ fillcolor = "0.5 1 1" ]
 3 [ fillcolor = "0 1 1" ]
 4 [ fillcolor = "0.75 1 1" ]
 5 [ fillcolor = "0.5 1 1" ]
 6 [ fillcolor = "0.75 1 1" ]

 0 -- 1
 0 -- 2
 0 -- 4
 0 -- 6
 1 -- 2
 1 -- 3
 1 -- 4
 1 -- 6
 2 -- 3
 2 -- 4
 2 -- 6
 3 -- 4
 3 -- 6
 4 -- 5
 5 -- 6

}
