graph {
 label="8 colors used for coloring the 16 nodes"
 node [ style = filled ]

 0 [ fillcolor = "0 1 1" ]
 1 [ fillcolor = "0.125 1 1" ]
 2 [ fillcolor = "0.25 1 1" ]
 3 [ fillcolor = "0.25 1 1" ]
 4 [ fillcolor = "0.375 1 1" ]
 5 [ fillcolor = "0 1 1" ]
 6 [ fillcolor = "0.5 1 1" ]
 7 [ fillcolor = "0.375 1 1" ]
 8 [ fillcolor = "0.5 1 1" ]
 9 [ fillcolor = "0.625 1 1" ]
 10 [ fillcolor = "0.75 1 1" ]
 11 [ fillcolor = "0.625 1 1" ]
 12 [ fillcolor = "0.75 1 1" ]
 13 [ fillcolor = "0.75 1 1" ]
 14 [ fillcolor = "0.875 1 1" ]
 15 [ fillcolor = "0.875 1 1" ]

 0 -- 2
 0 -- 3
 0 -- 6
 0 -- 7
 0 -- 8
 0 -- 9
 0 -- 10
 0 -- 11
 0 -- 12
 0 -- 13
 0 -- 14
 0 -- 15
 1 -- 2
 1 -- 3
 1 -- 4
 1 -- 5
 1 -- 6
 1 -- 7
 1 -- 8
 1 -- 9
 1 -- 10
 1 -- 11
 1 -- 12
 1 -- 13
 1 -- 14
 2 -- 4
 2 -- 5
 2 -- 6
 2 -- 7
 2 -- 9
 2 -- 11
 2 -- 12
 2 -- 13
 2 -- 15
 3 -- 4
 3 -- 5
 3 -- 6
 3 -- 7
 3 -- 8
 3 -- 9
 3 -- 12
 3 -- 13
 3 -- 14
 3 -- 15
 4 -- 5
 4 -- 6
 4 -- 8
 4 -- 9
 4 -- 10
 4 -- 12
 4 -- 13
 4 -- 15
 5 -- 7
 5 -- 8
 5 -- 9
 5 -- 12
 5 -- 14
 5 -- 15
 6 -- 7
 6 -- 9
 6 -- 10
 6 -- 12
 6 -- 13
 6 -- 15
 7 -- 8
 7 -- 9
 7 -- 12
 7 -- 13
 7 -- 14
 7 -- 15
 8 -- 9
 8 -- 12
 8 -- 13
 8 -- 14
 8 -- 15
 9 -- 10
 9 -- 12
 9 -- 14
 9 -- 15
 10 -- 11
 10 -- 14
 10 -- 15
 11 -- 12
 11 -- 14
 12 -- 14
 12 -- 15
 13 -- 14
 13 -- 15

}
