graph {
 label="6 colors used for coloring the 10 nodes"
 node [ style = filled ]

 0 [ fillcolor = "0 1 1" ]
 1 [ fillcolor = "0.166667 1 1" ]
 2 [ fillcolor = "0.333333 1 1" ]
 3 [ fillcolor = "0.5 1 1" ]
 4 [ fillcolor = "0.166667 1 1" ]
 5 [ fillcolor = "0.333333 1 1" ]
 6 [ fillcolor = "0.666667 1 1" ]
 7 [ fillcolor = "0.833333 1 1" ]
 8 [ fillcolor = "0.666667 1 1" ]
 9 [ fillcolor = "0.833333 1 1" ]

 0 -- 2
 0 -- 3
 0 -- 4
 0 -- 5
 0 -- 6
 0 -- 8
 0 -- 9
 1 -- 2
 1 -- 5
 1 -- 6
 1 -- 7
 1 -- 8
 1 -- 9
 2 -- 3
 2 -- 4
 2 -- 6
 2 -- 7
 2 -- 8
 2 -- 9
 3 -- 4
 3 -- 5
 3 -- 6
 3 -- 7
 3 -- 8
 3 -- 9
 4 -- 5
 4 -- 7
 4 -- 8
 4 -- 9
 5 -- 6
 5 -- 8
 5 -- 9
 6 -- 7
 7 -- 8
 8 -- 9

}
