graph {
 label="8 colors used for coloring the 20 nodes"
 node [ style = filled ]

 0 [ fillcolor = "0 1 1" ]
 1 [ fillcolor = "0.125 1 1" ]
 2 [ fillcolor = "0.25 1 1" ]
 3 [ fillcolor = "0.375 1 1" ]
 4 [ fillcolor = "0.5 1 1" ]
 5 [ fillcolor = "0.375 1 1" ]
 6 [ fillcolor = "0.625 1 1" ]
 7 [ fillcolor = "0.125 1 1" ]
 8 [ fillcolor = "0.125 1 1" ]
 9 [ fillcolor = "0.75 1 1" ]
 10 [ fillcolor = "0.875 1 1" ]
 11 [ fillcolor = "0.25 1 1" ]
 12 [ fillcolor = "0.875 1 1" ]
 13 [ fillcolor = "0.625 1 1" ]
 14 [ fillcolor = "0.5 1 1" ]
 15 [ fillcolor = "0.625 1 1" ]
 16 [ fillcolor = "0.75 1 1" ]
 17 [ fillcolor = "0.5 1 1" ]
 18 [ fillcolor = "0 1 1" ]
 19 [ fillcolor = "0.375 1 1" ]

 0 -- 1
 0 -- 2
 0 -- 3
 0 -- 4
 0 -- 5
 0 -- 6
 0 -- 7
 0 -- 8
 0 -- 10
 0 -- 11
 0 -- 13
 0 -- 16
 0 -- 19
 1 -- 3
 1 -- 4
 1 -- 5
 1 -- 6
 1 -- 9
 1 -- 10
 1 -- 11
 1 -- 12
 1 -- 13
 1 -- 14
 1 -- 15
 1 -- 17
 1 -- 18
 1 -- 19
 2 -- 3
 2 -- 4
 2 -- 6
 2 -- 7
 2 -- 8
 2 -- 9
 2 -- 10
 2 -- 12
 2 -- 13
 2 -- 14
 2 -- 15
 2 -- 16
 2 -- 17
 2 -- 18
 2 -- 19
 3 -- 4
 3 -- 6
 3 -- 7
 3 -- 8
 3 -- 9
 3 -- 10
 3 -- 12
 3 -- 13
 3 -- 14
 3 -- 16
 3 -- 17
 4 -- 5
 4 -- 6
 4 -- 7
 4 -- 8
 4 -- 9
 4 -- 10
 4 -- 11
 4 -- 12
 4 -- 15
 4 -- 16
 5 -- 6
 5 -- 7
 5 -- 8
 5 -- 9
 5 -- 10
 5 -- 11
 5 -- 13
 5 -- 15
 5 -- 17
 5 -- 18
 6 -- 7
 6 -- 8
 6 -- 9
 6 -- 11
 6 -- 12
 6 -- 14
 6 -- 18
 6 -- 19
 7 -- 9
 7 -- 10
 7 -- 13
 7 -- 14
 7 -- 15
 7 -- 16
 7 -- 17
 7 -- 18
 8 -- 9
 8 -- 10
 8 -- 11
 8 -- 12
 8 -- 14
 8 -- 16
 8 -- 17
 8 -- 18
 8 -- 19
 9 -- 10
 9 -- 11
 9 -- 12
 9 -- 14
 9 -- 15
 9 -- 17
 9 -- 18
 9 -- 19
 10 -- 11
 10 -- 13
 10 -- 15
 10 -- 16
 10 -- 18
 10 -- 19
 11 -- 12
 11 -- 13
 11 -- 14
 11 -- 15
 11 -- 17
 11 -- 19
 12 -- 13
 12 -- 14
 12 -- 15
 12 -- 16
 12 -- 17
 12 -- 18
 13 -- 14
 13 -- 16
 13 -- 17
 14 -- 15
 14 -- 16
 14 -- 18
 14 -- 19
 15 -- 16
 15 -- 19
 16 -- 18
 16 -- 19
 17 -- 18
 17 -- 19
 18 -- 19

}
