graph {
 label="5 colors used for coloring the 7 nodes"
 node [ style = filled ]

 0 [ fillcolor = "0 1 1" ]
 1 [ fillcolor = "0.2 1 1" ]
 2 [ fillcolor = "0.4 1 1" ]
 3 [ fillcolor = "0.6 1 1" ]
 4 [ fillcolor = "0.8 1 1" ]
 5 [ fillcolor = "0.6 1 1" ]
 6 [ fillcolor = "0.4 1 1" ]

 0 -- 1
 0 -- 2
 0 -- 4
 0 -- 5
 0 -- 6
 1 -- 4
 1 -- 5
 1 -- 6
 2 -- 4
 2 -- 5
 3 -- 4
 4 -- 5
 4 -- 6
 5 -- 6

}
