graph {
 label="5 colors used for coloring the 10 nodes"
 node [ style = filled ]

 0 [ fillcolor = "0 1 1" ]
 1 [ fillcolor = "0.2 1 1" ]
 2 [ fillcolor = "0.4 1 1" ]
 3 [ fillcolor = "0.6 1 1" ]
 4 [ fillcolor = "0 1 1" ]
 5 [ fillcolor = "0.8 1 1" ]
 6 [ fillcolor = "0.8 1 1" ]
 7 [ fillcolor = "0.2 1 1" ]
 8 [ fillcolor = "0.6 1 1" ]
 9 [ fillcolor = "0.4 1 1" ]

 0 -- 2
 0 -- 3
 0 -- 5
 0 -- 6
 0 -- 7
 0 -- 8
 0 -- 9
 1 -- 3
 1 -- 4
 1 -- 5
 1 -- 6
 1 -- 8
 1 -- 9
 2 -- 3
 2 -- 4
 2 -- 5
 2 -- 6
 3 -- 4
 3 -- 5
 3 -- 6
 3 -- 7
 3 -- 9
 4 -- 5
 4 -- 6
 4 -- 8
 4 -- 9
 5 -- 7
 5 -- 8
 5 -- 9
 6 -- 7
 6 -- 8
 6 -- 9
 7 -- 8
 7 -- 9
 8 -- 9

}
